
strategic_region={
	id=190
	name="STRATEGICREGION_190"
	provinces={
		2814 2908 2926 2938 2939 2959 2960 2973 2995 3074 3112 3126 3127 3128 3155 3292 3301 3343 3364 3374 3439 3470 3507 3544 3572 3582 3610 3653 3735 3741 3781 3830 3861 3872 3879 3908 3926 3985 4040 4079 4104 4131 4168 4220 4242 4277 4291 4299 4339 4372 4373 4395 4412 4488 4505 4536 4587 4588 4634 4644 4652 4665 4685 4717 4769 4770 4771 4786 4827 4847 4866 4869 4878 4902 4986 9960 
	}
	weather={
	}
}
