
strategic_region={
	id=194
	name="STRATEGICREGION_194"
	provinces={
		4267 4442 4490 4500 4552 4579 4627 4659 4772 4828 4829 4836 4855 4885 4912 4936 4987 4992 4993 5043 5044 5059 5092 5150 5192 5193 5224 5233 5283 5299 5326 5335 5349 5416 5417 5460 5473 5485 5501 5510 5565 5590 5633 5634 5650 5684 5732 5784 5814 5846 5847 5857 5870 5879 5937 6028 9962 
	}
	weather={
	}
}
