strategic_region={
	id=198
	name="STRATEGICREGION_198"
	provinces={
		3764 3797 3806 3820 3900 3970 3978 3995 4080 4082 4091 4145 4243 4244 4323 4324 4384 4423 4443 4444 4478 4516 4528 4537 4548 4553 4559 4609 4635 4667 4718 4741 4787 4819 4852 4859 4914 4925 4954 4963 4976 5061 5062 5081 5104 5124 5270 5285 
	}
	weather={
	}
}
