
state={
	id=2
	name="STATE_2"
	provinces={
		8104 8110 8220 8232 8279 8330 8368 8417 8441 8470 8536 8580 8582 8635 8645 8676 8677 8687 8720 8728 8754 8755 8820 8824 8852 8854 8877 8878 8880 8882 8922 8927 8937 8969 8979 9046 9051 9052 9065 9080 9098 9110 9152 9187 9208 9248 9299 
	}
	manpower=0
	buildings_max_level_factor=1.000
}
