
state={
	id=24
	name="STATE_24"
	provinces={
		7757 7781 7802 7840 7846 7853 7885 7922 7936 7942 7960 7972 7999 8008 8037 8101 8108 8123 8213 8252 8350 
	}
	manpower=0
	buildings_max_level_factor=1.000
}
