state={
	id=27
	name="STATE_27"
	provinces={
		8670 8828 9040 9057 9178 9180 9202 9214 9268 9317 9322 9346 9352 9395 9429 9450 9486 9533 9605 9610 9626 9631 9686 9689 9744 9769 9792 9816 9950 9958 10089 10122 10231 10389 10497 11389 
	}
	manpower=0
	buildings_max_level_factor=1.000
}
