state={
	id=4
	name="STATE_4"
	history={
		owner = ERU
		add_core_of = ERU

	}
	provinces={
		4901 4923 4998 5039 5111 5280 5310 5323 5472 5500 5532 5625 5700 5724 
	}
	manpower=1800000
	buildings_max_level_factor=1.000
}
