state={
	id=7
	name="STATE_7"
	history={
		owner = ERU
		add_core_of = ERU

	}
	provinces={
		4803 4876 4960 4961 5005 5052 5074 5203 5281 5282 5298 5355 5488 5564 5589 
	}
	manpower=1800000
	buildings_max_level_factor=1.000
}
