state={
	id=77
	name="STATE_77"
	provinces={
		3063 3076 3081 3255 3282 3331 3386 3421 3422 3457 3476 3477 3487 3488 3527 3619 3664 3725 3819 3931 4048 
	}
	manpower=0
	buildings_max_level_factor=1.000
}
