state={
	id=93
	name="STATE_93"
	history={
		owner = BEL
		add_core_of = BEL
	}
	provinces={
		6999 7102 7178 7229 7239 7326 7344 7417 7470 7478 7485 7593 7617 7632 7716 7732 7733 7807 7838 
	}
	manpower=0
	buildings_max_level_factor=1.000
}
